{
    "clock": {
        "eta": 4e-09,
        "rho": 1.0002,
        "delta": 1e-06
    },
    "service-in-local-time": {
        "rate_bits_per_seconds": 100000000.0,
        "latency_seconds": 1e-06
    },
    "source-in-local-time": {
        "load_no_unit": 0.8,
        "burst_bytes": 1500
    },
    "n": 11,
    "x_vector": [
        1,
        2,
        3,
        4,
        5,
        6,
        7,
        8,
        9,
        10,
        11
    ],
    "reference": [
        0.000121,
        0.0003388,
        0.00073084,
        0.001436512,
        0.0027067216,
        0.00499309888,
        0.009108577984,
        0.016516440371199998,
        0.029850592668159995,
        0.053852066802687996,
        0.0970547202448384
    ],
    "results": {
        "tfa_ideal": {
            "y_vector": [
                0.0,
                0.0,
                0.0,
                0.0,
                0.0,
                0.0,
                0.0,
                0.0,
                0.0,
                0.0,
                0.0
            ],
            "label": "TFA with ideal clocks"
        },
        "tfa_tai_async": {
            "y_vector": [
                0.00025950942148763147,
                0.000373836225530163,
                0.0005033226140585644,
                0.0006456872541073091,
                0.0007983808788653197,
                0.0009589476305949545,
                0.0011252580856243636,
                0.001295607201177886,
                0.0014687116342404184,
                0.0016436512935585955,
                0.001819791421024382
            ],
            "label": "'Always in TAI' TFA with non-synchronized clocks",
            "other":{
                "marker": "x",
                "color": "C1",
                "linestyle": "dashed"
            }
        },
        "tfa_tai_sync": {
            "y_vector": [
                0.00025950942148763147,
                0.000373836225530163,
                0.0005033226140585644,
                0.0006456872541073091,
                0.0007983808788653197,
                0.0009589476305949545,
                0.0011252580856243636,
                0.001295607201177886,
                0.0014109560509289463,
                0.0014746355811946059,
                0.0015098896016692185
            ],
            "label": "'Always in TAI' TFA with synchronized clocks",
            "other":{
                "marker": "o",
                "fillstyle": "none",
                "color": "C1"
            }
        },
        "tfa_local_async": {
            "y_vector": [
                0.00025950942148751947,
                0.0003166689971380539,
                0.00042911118919414454,
                0.0006079389891319734,
                0.0008618899901701491,
                0.0011972307540566163,
                0.0016180796391167469,
                0.0021269261829295937,
                0.002725158403028057,
                0.003413495140535861,
                0.004192294114745506
            ],
            "label": "'Always in local time' TFA with non-synchronized clocks",
            "other":{
                "marker": "x",
                "color": "C2",
                "linestyle": "dashed"
            }
        },
        "tfa_local_sync": {
            "y_vector": [
                0.00025950942148751947,
                0.0003166689971380539,
                0.00042911118919414454,
                0.0006079389891319734,
                0.0008618899901701491,
                0.0011972307540566163,
                0.0016180796391167469,
                0.0021269261829295937,
                0.002510972437688744,
                0.0027305750743405787,
                0.0028521506546958786
            ],
            "label": "'Always in local time' TFA with synchronized clocks",
            "other":{
                "marker": "o",
                "fillstyle": "none",
                "color": "C2"
            }
        }
    }
}